Amodia, Rommel				3001 - OITC
Amodia, Rommel				3002 - OITC
Degamo, Fernando			3003	
Degamo, Fernando			3004	
Gorre, Mervin				3005
Gorre, Mervin				3006
Solicar, Mary Joy			3007	
Solicar, Mary Joy			3008	
Galenzoga, Lester			3009	
Galenzoga, Lester			3010	
Baterna, Merben				3011 - OITC
Baterna, Merben				3012 - OITC
Labrado, Joey Boy			3013 - OITC	
Labrado, Joey Boy			3014 - OITC
Sumaya, Ronald				3015
Sumaya, Ronald				3016
Labitad, Francis			3017	
Labitad, Francis			3018	
Achumbre, Ghian				3019 - OITC
Achumbre, Ghian				3020 - OITC
Del Castillo, Regine			3021	
Del Castillo, Regine			3022	
Manlucob, Joshua			3023	
Manlucob, Joshua			3024	
Godinez, William			3025 - OITC	
Godinez, William			3026 - OITC	
Najarro, Hansel				3027
Najarro, Hansel				3028
Pielago, Anthony			3029	
Pielago, Anthony			3030	
Pacana, Pete				3031
Pacana, Pete				3032
Sanchez, Junren				3033
Sanchez, Junren				3034
Gimenez, Stevenson			3035 - OITC	
Gimenez, Stevenson			3036 - OITC
Tonacao, Norwin				3037 - OITC
Tonacao, Norwin				3038 - OITC
Vargas, Isaiah				3039
Vargas, Isaiah				3040
Boa, Belen				3041
Boa, Belen				3042
El Ejandra, Mark			3043	
El Ejandra, Mark			3044	
Jolbot, Mariel				3045
Jolbot, Mariel				3046
Magtagad, Antonio			3047 - OITC	
Magtagad, Antonio			3048 - OITC
Ogtip, Granville			3049	
Ogtip, Granville			3050	
Palantang, Jason			3051	
Palantang, Jason			3052	
Cui, John Alexis			3053	
Cui, John Alexis			3054	
Cristoria, Christian Darius		3055 - OITC	
Cristoria, Christian Darius		3056 - OITC
Odango, Bush Carl			3057	
Odango, Bush Carl			3058	
Tariao, Roel Jr				3059 - OITC
Tariao, Roel Jr				3060 - OITC
Delantar, Nina Mae			3061	
Delantar, Nina Mae			3062	
Ocampo, Emma				3066
Sato, Jomar				3079 - OITC
Sato, Jomar				3080 - OITC
Bungie, Manuel				3081 - OITC
Bungie, Manuel				3082 - OITC
Sulpico, Charisse			3083	
Sulpico, Charisse			3084	
Macalua, Jenalyn			3085	
Macalua, Jenalyn			3086	
Costanilla, Anna Angelica		3091	
Cruz, Analito				3093 - OITC
Cruz, Analito				3094 - OITC
Go, Christine				3097
Go, Christine				3098
Caon-ong, Janray			3099 - OITC
Caon-ong, Janray			3100 - OITC
Villasor, Ma. Rhealyn			3101 - OITC	
Villasor, Ma. Rhealyn			3102 - OITC	
Pantallano, Louie			3107	
Pantallano, Louie			3108	
Cabanero, Christer			3109	
Cabanero, Christer			3110	
Costanilla, Anna Nica			3111	
Costanilla, Anna Nica			3112	
Navaja, Rodel				3113 - OITC
Navaja, Rodel				3114 - OITC
Najarro, Fritz Mitchel			3115	
Najarro, Fritz Mitchel			3116	
Pacunla, Elna				3117
Pacunla, Elna				3118
Dumagpi, Mary Winde			3121	
Dumagpi, Mary Winde			3122	
Costanilla, Anna Angelica		3125	
Caballero, Jacqueline			3127 - OITC
Caballero, Jacqueline			3128 - OITC
Lopez, Mary Jane			3129	
Lopez, Mary Jane			3130	
Denila, Fineflor			3131	
Denila, Fineflor			3132	
dela Cerna, Arlene			3133	
dela Cerna, Arlene			3134	
Dacua, Jennifer				3135
Dacua, Jennifer				3136
Destacomento, Hyrum Troy		3137	
Destacomento, Hyrum Troy		3138	
Dinampo, Joshua Adrian			3139 - OITC	
Dinampo, Joshua Adrian			3140 - OITC	
Valiente, Dexter Rey			3143	
Valiente, Dexter Rey			3144	
Miral, Raymundo				3145
Ogatis, Yearee				3147
Ogatis, Yearee				3148
Burdas, Mark Reland			3149	
Burdas, Mark Reland			3150	
Alindajao, Jurna			3151	
Alindajao, Jurna			3152	
Calinao, Sharmaine Jane			3153 - OITC	
Calinao, Sharmaine Jane			3154 - OITC	
Pasaporte, Daniel			3155 - OITC	
Pasaporte, Daniel			3156 - OITC	
Racaza, Aliemar				3157
Racaza, Aliemar				3158
Largo, Arnel				3159 - OITC
Largo, Arnel				3160 - OITC
Ramirez, Joe Marie			3161	
Ramirez, Joe Marie			3162	
Navarro, Myko Julius			3163	
Navarro, Myko Julius			3164	
Abapo, Rose Ann				3165
Abapo, Rose Ann				3166
Sipsip, Aileen				3167
Sipsip, Aileen				3168
Albino, Jhenny				3169
Albino, Jhenny				3170
Nierves, Jhayson			3171	
Nierves, Jhayson			3172	
Ignacio, Renalyn			3173	
Ignacio, Renalyn			3174	
Pena, Bret				3175
Pena, Bret				3176
Teofilo, Michael Duane			3177	
Teofilo, Michael Duane			3178 - OITC	
Rosales, Melca				3179
Calderon, Jesse James			3181	
Calderon, Jesse James			3182	
Lim, Maria Krishia			3183	
Lim, Maria Krishia			3184	
Fajardo, Mark Louie			3185 - OITC	
Fajardo, Mark Louie			3186 - OITC	
Tabada, Christian Isaiah		3187	
Tabada, Christian Isaiah		3188	
Arceno, Eden Rose			3189	
Arceno, Eden Rose			3190	
Montebon, Melvin			3191 - OITC	
Montebon, Melvin			3192 - OITC	
Rodriguez, Ezron Sajol			3193 - OITC	
Rodriguez, Ezron Sajol			3194 - OITC	
Rodriguez, Joshua			3195 - OITC
Rodriguez, Joshua			3196 - OITC
Arengo, Donna Jane			3197
Arengo, Donna Jane			3198
Destacamento, Rocella			3200
Destacamento, Rocella			3201
Fajardo, John Paul			3202 - OITC
Fajardo, John Paul			3203 - OITC
Gabato, Elmie				3204
Gabato, Elmie				3205
Goc-ong, Vincent Cleo			3206
Goc-ong, Vincent Cleo			3207
Alcantara, Sheena			3210
Alcantara, Sheena			3211
Manlucob, Merben			3212 - OITC
Manlucob, Merben			3213 - OITC
Liwanag, Precious Joy			3214
Liwanag, Precious Joy			3215
Anasco, Ryan				3216
Anasco, Ryan				3217
Palis, Eva Mei				3218
Palis, Eva Mei				3219
Fat, Kent Bryan				3220
Fat, Kent Bryan				3221
Sabior, Jun Ryan			3222
Sabior, Jun Ryan			3223
Rontal, Al June				3224
Rontal, Al June				3225
Mabuhay, Abraham			3226
Mabuhay, Abraham			3227
Platon Villarin Jr			3228
Platon Villarin Jr			3229
--------------------------------------------
Genevieve Sacarez			3230
Genevieve Sacarez			3231
Esgana, Lyka Marie			3232
Esgana, Lyka Marie			3233
Vargas, Rochelle			3234
Vargas, Rochelle			3235
Panilag, Juhna Clare			3236
Panilag, Juhna Clare			3237
Piscos, John Ryan			3238
Piscos, John Ryan			3239
Cabanero, Christopher Chlyde		3240
Cabanero, Christopher Chlyde		3241
Parmisana, Lyndon			3242
Parmisana, Lyndon			3243
Enrile, Onyx				3244
Enrile, Onyx				3245
Constancio, John Kevin			3246
Constancio, John Kevin			3247
Oltiano, Cassandra			3248
Oltiano, Cassandra			3249
Manayaga, Angelika Joy			3250
Manayaga, Angelika Joy			3251
Sanchez, Jerica				3252
Sanchez, Jerica				3253
Entera, William Jr.			3254
Entera, William Jr.			3255
Torejas, Wilson				3256
Torejas, Wilson				3257
Ugbinada, Edbonson			3258
Ugbinada, Edbonson			3259
-------------------wave9--------------------------
Alquisola, Mary Joy			3260
Alquisola, Mary Joy			3261
Bondoc, Mon Cris			3262
Bondoc, Mon Cris			3263
Camingawan, Jocelyn			3264
Camingawan, Jocelyn			3265
Canton, Casey Mae			3266
Canton, Casey Mae			3267
Cose, Mary Joy				3270
Cose, Mary Joy				3271
delos Santos, Lastlyn			3272
delos Santos, Lastlyn			3273
Duero, Lester				3274
Duero, Lester				3275
Fernandez, Steven			3278
Fernandez, Steven			3279
Laurel, Cherry Lie			3280
Laurel, Cherry Lie			3281
Morales, Jin Irish			3282
Morales, Jin Irish			3283
Omega, Natasha Bless			3284
Omega, Natasha Bless			3285
Omega, Vivian				3286
Omega, Vivian				3287
Sardoncillo, Windel			3288
Sardoncillo, Windel			3289
Villasan, Mae				3290
Villasan, Mae				3291

-------------------wave10--------------------------
3292	3293	Krystal Jane Bayla
3294	3295	Lyndon Dave D. Nardo
3296	3297	Jeramie Abatayo
3298	3299	Christian A. Feniza
3300	3301	Rochel Ann P. Samalca
3302	3303	Rojenne A. Lastimado
3304	3305	Diana Rose Tobias
3306	3307	Maynard Ostaya
3308	3309	Gellen Rose Cabusas
--------------------AAL---------------------------
3309	Marck Donis Velez
3310	James Paul Alferez
3311	Pamela Arante
3312	Ciao Celocia
3313	Chad Gerbie Socobos
3314	Alyssa May Jimenez
3315	Jose Rafael Guinto
3316	Marie Nicole Fernandez
3317	Renz Urbano
3318 	Camomot, Charizze
3319	Gebone, Jay
3320	Rentillosa, Russel
3321	Abaygar, Mariette
3322	Genilza, Ivan
3323	Nacario, Philip
3324	Pega, Aldwen
------------------WAVE 10-------------------------
Enolpe, Renan			3325
Enolpe, Renan			3326
Ludripas, Kimberly		3327
Ludripas, Kimberly		3328 
Cabague, Chlyde			3329
Cabague, Chlyde			3330
Abadilla, Darlyn Mae		3331
Abadilla, Darlyn Mae		3332
Paala, Ruffa Mae		3333
Paala, Ruffa Mae		3334
Angkay, Jenerica		3335
Angkay, Jenerica		3336
-----------------Dumaguete----------------
3337	Shiella Mae Filosofo
3338	Shiella Mae Filosofo
3339	Jazzel Lim
3340	Jazzel Lim
3341	Rica Jane Filosofo	
3342	Rica Jane Filosofo
3343	Marybeth Tajada
3344	Marybeth Tajada
3345	Mark Julius Badoy
3346	Mark Julius Badoy



















